{
    "packages": {
        "shandialamp/my-php-api": [
            {
                "name": "shandialamp/my-php-api",
                "version": "0.1.0",
                "version_normalized": "0.1.0.0",
                "source": {
                    "type": "git",
                    "url": "git@gitlab.com:longway/my-php-api.git",
                    "reference": "496e2792d4bd31c58aa5eee10e8bd39dfc8c5919"
                },
                "require": {
                    "monolog/monolog": "^2.3",
                    "php-di/slim-bridge": "^3.2",
                    "slim/psr7": "^1.5",
                    "slim/slim": "4.*",
                    "usmanhalalit/pixie": "^2.0"
                },
                "time": "2021-12-23T08:54:55+00:00",
                "type": "project",
                "autoload": {
                    "psr-4": {
                        "App\\": "app/",
                        "Core\\": "src/"
                    },
                    "files": [
                        "src/helpers.php"
                    ]
                },
                "scripts": {
                    "serve": [
                        "php -S localhost:8080 -t public"
                    ]
                },
                "authors": [
                    {
                        "name": "shandialamp",
                        "email": "shandialamp@gmail.com"
                    }
                ],
                "description": "我的PHP API框架"
            }
        ]
    }
}
